[gd_scene load_steps=4 format=2]

[ext_resource path="res://options.gd" type="Script" id=1]
[ext_resource path="res://gfx/bg/options.png" type="Texture" id=2]
[ext_resource path="res://gfx/buttons/back.png" type="Texture" id=3]

[node name="Node" type="Node"]

script = ExtResource( 1 )

[node name="options" type="Sprite" parent="." index="0"]

texture = ExtResource( 2 )
centered = false
_sections_unfolded = [ "Offset", "Transform" ]

[node name="back" type="TextureButton" parent="." index="1"]

anchor_left = 0.0
anchor_top = 0.0
anchor_right = 0.0
anchor_bottom = 0.0
margin_left = 1631.0
margin_top = 960.0
margin_right = 1759.0
margin_bottom = 1000.0
rect_pivot_offset = Vector2( 0, 0 )
rect_clip_content = false
focus_mode = 2
mouse_filter = 0
mouse_default_cursor_shape = 0
size_flags_horizontal = 1
size_flags_vertical = 1
toggle_mode = false
enabled_focus_mode = 2
shortcut = null
group = null
texture_normal = ExtResource( 3 )
_sections_unfolded = [ "Textures" ]

[connection signal="pressed" from="back" to="." method="_on_back_pressed"]


