[gd_scene load_steps=5 format=2]

[ext_resource path="res://playerbee.gd" type="Script" id=1]
[ext_resource path="res://gfx/char/bee.png" type="Texture" id=2]

[sub_resource type="CircleShape2D" id=2]

custom_solver_bias = 0.0
radius = 10.0

[sub_resource type="CircleShape2D" id=1]

custom_solver_bias = 0.0
radius = 99.1643

[node name="player" type="Node2D"]

[node name="bee" type="KinematicBody2D" parent="." index="0"]

input_pickable = false
collision_layer = 1
collision_mask = 1
collision/safe_margin = 0.08
script = ExtResource( 1 )
speed = 100

[node name="Sprite" type="Sprite" parent="bee" index="0"]

z_index = 1
texture = ExtResource( 2 )
_sections_unfolded = [ "Transform", "Z Index" ]

[node name="Area2D" type="Area2D" parent="bee" index="1" groups=[
"player",
]]

input_pickable = true
gravity_vec = Vector2( 0, 1 )
gravity = 98.0
linear_damp = 0.1
angular_damp = 1.0
audio_bus_override = false
audio_bus_name = "Master"

[node name="hitbox" type="CollisionShape2D" parent="bee/Area2D" index="0"]

scale = Vector2( 10.4615, 10.4615 )
shape = SubResource( 2 )

[node name="mass" type="CollisionShape2D" parent="bee" index="2"]

scale = Vector2( 0.704747, 0.704747 )
shape = SubResource( 1 )


